<?xml version="1.0" encoding="UTF-8" standalone="no"?>
<svg
   xmlns:dc="http://purl.org/dc/elements/1.1/"
   xmlns:cc="http://creativecommons.org/ns#"
   xmlns:rdf="http://www.w3.org/1999/02/22-rdf-syntax-ns#"
   xmlns:svg="http://www.w3.org/2000/svg"
   xmlns="http://www.w3.org/2000/svg"
   xmlns:sodipodi="http://sodipodi.sourceforge.net/DTD/sodipodi-0.dtd"
   xmlns:inkscape="http://www.inkscape.org/namespaces/inkscape"
   id="svg8"
   version="1.1"
   viewBox="0 0 4.2333332 4.2333335"
   height="16"
   width="16"
   sodipodi:docname="colors-svg.svg"
   inkscape:version="1.0.1 (3bc2e813f5, 2020-09-07)">
  <sodipodi:namedview
     pagecolor="#ffffff"
     bordercolor="#666666"
     borderopacity="1"
     objecttolerance="10"
     gridtolerance="10"
     guidetolerance="10"
     inkscape:pageopacity="0"
     inkscape:pageshadow="2"
     inkscape:window-width="640"
     inkscape:window-height="480"
     id="namedview1857"
     showgrid="false"
     inkscape:zoom="41.5625"
     inkscape:cx="8"
     inkscape:cy="8"
     inkscape:current-layer="svg8" />
  <defs
     id="defs2" />
  <metadata
     id="metadata5">
    <rdf:RDF>
      <cc:Work
         rdf:about="">
        <dc:format>image/svg+xml</dc:format>
        <dc:type
           rdf:resource="http://purl.org/dc/dcmitype/StillImage" />
        <dc:title></dc:title>
      </cc:Work>
    </rdf:RDF>
  </metadata>
  <g
     id="layer1"
     transform="matrix(-1,0,0,1,4.2333336,0)"
     style="fill:#{color2};fill-opacity:1">
    <rect
       y="6.9388939e-18"
       x="6.9388939e-18"
       height="4.2333336"
       width="4.2333336"
       id="rect26"
       style="fill:{color2};fill-opacity:1;stroke:none;stroke-width:0.264583;stroke-miterlimit:4;stroke-dasharray:none" />
  </g>
  <g
     id="layer1-3"
     transform="matrix(-0.99999999,0,0,0.99999999,4.2333336,6.9270181e-8)"
     style="fill:#000000;fill-opacity:0.49751514">
    <rect
       y="6.9388939e-18"
       x="6.9388939e-18"
       height="4.2333336"
       width="4.2333336"
       id="rect26-6"
       style="fill:#000000;fill-opacity:0.49751514;stroke:none;stroke-width:0.264583;stroke-miterlimit:4;stroke-dasharray:none" />
  </g>
</svg>
